module github.com/go-flutter-desktop/hover

go 1.18

require (
	github.com/JackMordaunt/icns v1.0.0
	github.com/Kodeworks/golang-image-ico v0.0.0-20141118225523-73f0f4cfade9
	github.com/google/uuid v1.3.0
	github.com/hashicorp/go-version v1.6.0
	github.com/logrusorgru/aurora v2.0.3+incompatible
	github.com/otiai10/copy v1.7.0
	github.com/pkg/errors v0.9.1
	github.com/spf13/cobra v1.5.0
	github.com/stretchr/testify v1.8.0
	github.com/tcnksm/go-latest v0.0.0-20170313132115-e3007ae9052e
	golang.org/x/mod v0.5.1
	golang.org/x/sys v0.0.0-20220520151302-bc2c85ada10a
	gopkg.in/yaml.v2 v2.4.0
)

require (
	github.com/davecgh/go-spew v1.1.1 // indirect
	github.com/google/go-github v17.0.0+incompatible // indirect
	github.com/google/go-querystring v1.1.0 // indirect
	github.com/inconshreveable/mousetrap v1.0.0 // indirect
	github.com/nfnt/resize v0.0.0-20180221191011-83c6a9932646 // indirect
	github.com/pmezard/go-difflib v1.0.0 // indirect
	github.com/spf13/pflag v1.0.5 // indirect
	golang.org/x/net v0.0.0-20220708220712-1185a9018129 // indirect
	golang.org/x/xerrors v0.0.0-20191204190536-9bdfabe68543 // indirect
	gopkg.in/yaml.v3 v3.0.1 // indirect
)
